submit/xsim.log
#-----------------------------------------------------------
# xsim v2022.1 (64-bit)
# SW Build 3526262 on Mon Apr 18 15:47:01 MDT 2022
# IP Build 3524634 on Mon Apr 18 20:55:01 MDT 2022
# Start of session at: Tue Oct 24 14:44:01 2023
# Process ID: 10353
# Current directory: /home/ubuntu/soc/SOC_lab_fir/fir
# Command line: xsim -mode tcl -source {xsim.dir/fir_tb_elab/xsim_script.tcl}
# Log file: /home/ubuntu/soc/SOC_lab_fir/fir/xsim.log
# Journal file: /home/ubuntu/soc/SOC_lab_fir/fir/xsim.jou
# Running On: ubuntu2004, OS: Linux, CPU Frequency: 3593.230 MHz, CPU Physical cores: 2, Host memory: 9955 MB
#-----------------------------------------------------------
source xsim.dir/fir_tb_elab/xsim_script.tcl
# xsim {fir_tb_elab} -autoloadwcfg -runall
Time resolution is 1 ps
run -all
------Filling the data input(AXI-Stream)------
------Finish Filling the data input(AXI-Stream)------

==========================================================
=================TASK: axilite_write_task==================
==========================================================
----Start the coefficient input(AXI-lite)----
==========================================================
================TASK: stream_write_task================
==========================================================
------------Start simulation-----------
----Start the data input(AXI-Stream)----
==========================================================
================TASK: streaming_read_task================
==========================================================
----End the coefficient input(AXI-lite)----

==========================================================
=================TASK: axilite_read_task==================
==========================================================
 Check Coefficient ...
OK: exp =           0, rdata =           0
OK: exp =         -10, rdata =         -10
OK: exp =          -9, rdata =          -9
OK: exp =          23, rdata =          23
OK: exp =          56, rdata =          56
OK: exp =          63, rdata =          63
OK: exp =          56, rdata =          56
OK: exp =          23, rdata =          23
OK: exp =          -9, rdata =          -9
OK: exp =         -10, rdata =         -10
OK: exp =           0, rdata =           0
 Tape programming done ...
 Start FIR
----End the coefficient input(AXI-lite)----
[PASS] [Pattern     0]    Golden answer:     0, Your answer:     0      $Time:   885
[PASS] [Pattern     1]    Golden answer:   -10, Your answer:   -10      $Time:  1135
[PASS] [Pattern     2]    Golden answer:   -29, Your answer:   -29      $Time:  1265
[PASS] [Pattern     3]    Golden answer:   -25, Your answer:   -25      $Time:  1395
[PASS] [Pattern     4]    Golden answer:    35, Your answer:    35      $Time:  1525
[PASS] [Pattern     5]    Golden answer:   158, Your answer:   158      $Time:  1655
[PASS] [Pattern     6]    Golden answer:   337, Your answer:   337      $Time:  1785
[PASS] [Pattern     7]    Golden answer:   539, Your answer:   539      $Time:  1915
[PASS] [Pattern     8]    Golden answer:   732, Your answer:   732      $Time:  2045
[PASS] [Pattern     9]    Golden answer:   915, Your answer:   915      $Time:  2175
[PASS] [Pattern    10]    Golden answer:  1098, Your answer:  1098      $Time:  2305
[PASS] [Pattern    11]    Golden answer:  1281, Your answer:  1281      $Time:  2435
[PASS] [Pattern    12]    Golden answer:  1464, Your answer:  1464      $Time:  2565
[PASS] [Pattern    13]    Golden answer:  1647, Your answer:  1647      $Time:  2695
[PASS] [Pattern    14]    Golden answer:  1830, Your answer:  1830      $Time:  2825
[PASS] [Pattern    15]    Golden answer:  2013, Your answer:  2013      $Time:  2955
[PASS] [Pattern    16]    Golden answer:  2196, Your answer:  2196      $Time:  3085
[PASS] [Pattern    17]    Golden answer:  2379, Your answer:  2379      $Time:  3215
[PASS] [Pattern    18]    Golden answer:  2562, Your answer:  2562      $Time:  3345
[PASS] [Pattern    19]    Golden answer:  2745, Your answer:  2745      $Time:  3475
[PASS] [Pattern    20]    Golden answer:  2928, Your answer:  2928      $Time:  3605
[PASS] [Pattern    21]    Golden answer:  3111, Your answer:  3111      $Time:  3735
[PASS] [Pattern    22]    Golden answer:  3294, Your answer:  3294      $Time:  3865
[PASS] [Pattern    23]    Golden answer:  3477, Your answer:  3477      $Time:  3995
[PASS] [Pattern    24]    Golden answer:  3660, Your answer:  3660      $Time:  4125
[PASS] [Pattern    25]    Golden answer:  3843, Your answer:  3843      $Time:  4255
[PASS] [Pattern    26]    Golden answer:  4026, Your answer:  4026      $Time:  4385
[PASS] [Pattern    27]    Golden answer:  4209, Your answer:  4209      $Time:  4515
[PASS] [Pattern    28]    Golden answer:  4392, Your answer:  4392      $Time:  4645
[PASS] [Pattern    29]    Golden answer:  4575, Your answer:  4575      $Time:  4775
[PASS] [Pattern    30]    Golden answer:  4758, Your answer:  4758      $Time:  4905
[PASS] [Pattern    31]    Golden answer:  4941, Your answer:  4941      $Time:  5035
[PASS] [Pattern    32]    Golden answer:  5124, Your answer:  5124      $Time:  5165
[PASS] [Pattern    33]    Golden answer:  5307, Your answer:  5307      $Time:  5295
[PASS] [Pattern    34]    Golden answer:  5490, Your answer:  5490      $Time:  5425
[PASS] [Pattern    35]    Golden answer:  5673, Your answer:  5673      $Time:  5555
[PASS] [Pattern    36]    Golden answer:  5856, Your answer:  5856      $Time:  5685
[PASS] [Pattern    37]    Golden answer:  6039, Your answer:  6039      $Time:  5815
[PASS] [Pattern    38]    Golden answer:  6222, Your answer:  6222      $Time:  5945
[PASS] [Pattern    39]    Golden answer:  6405, Your answer:  6405      $Time:  6075
[PASS] [Pattern    40]    Golden answer:  6588, Your answer:  6588      $Time:  6205
[PASS] [Pattern    41]    Golden answer:  6771, Your answer:  6771      $Time:  6335
[PASS] [Pattern    42]    Golden answer:  6954, Your answer:  6954      $Time:  6465
[PASS] [Pattern    43]    Golden answer:  7137, Your answer:  7137      $Time:  6595
[PASS] [Pattern    44]    Golden answer:  7320, Your answer:  7320      $Time:  6725
[PASS] [Pattern    45]    Golden answer:  7503, Your answer:  7503      $Time:  6855
[PASS] [Pattern    46]    Golden answer:  7686, Your answer:  7686      $Time:  6985
[PASS] [Pattern    47]    Golden answer:  7869, Your answer:  7869      $Time:  7115
[PASS] [Pattern    48]    Golden answer:  8052, Your answer:  8052      $Time:  7245
[PASS] [Pattern    49]    Golden answer:  8235, Your answer:  8235      $Time:  7375
[PASS] [Pattern    50]    Golden answer:  8418, Your answer:  8418      $Time:  7505
[PASS] [Pattern    51]    Golden answer:  8601, Your answer:  8601      $Time:  7635
[PASS] [Pattern    52]    Golden answer:  8784, Your answer:  8784      $Time:  7765
[PASS] [Pattern    53]    Golden answer:  8967, Your answer:  8967      $Time:  7895
[PASS] [Pattern    54]    Golden answer:  9150, Your answer:  9150      $Time:  8025
[PASS] [Pattern    55]    Golden answer:  9333, Your answer:  9333      $Time:  8155
[PASS] [Pattern    56]    Golden answer:  9516, Your answer:  9516      $Time:  8285
[PASS] [Pattern    57]    Golden answer:  9699, Your answer:  9699      $Time:  8415
[PASS] [Pattern    58]    Golden answer:  9882, Your answer:  9882      $Time:  8545
[PASS] [Pattern    59]    Golden answer: 10065, Your answer: 10065      $Time:  8675
[PASS] [Pattern    60]    Golden answer: 10248, Your answer: 10248      $Time:  8805
[PASS] [Pattern    61]    Golden answer: 10431, Your answer: 10431      $Time:  8935
[PASS] [Pattern    62]    Golden answer: 10614, Your answer: 10614      $Time:  9065
[PASS] [Pattern    63]    Golden answer: 10797, Your answer: 10797      $Time:  9195
[PASS] [Pattern    64]    Golden answer: 10980, Your answer: 10980      $Time:  9325
[PASS] [Pattern    65]    Golden answer: 11163, Your answer: 11163      $Time:  9455
[PASS] [Pattern    66]    Golden answer: 11346, Your answer: 11346      $Time:  9585
[PASS] [Pattern    67]    Golden answer: 11529, Your answer: 11529      $Time:  9715
[PASS] [Pattern    68]    Golden answer: 11712, Your answer: 11712      $Time:  9845
[PASS] [Pattern    69]    Golden answer: 11895, Your answer: 11895      $Time:  9975
[PASS] [Pattern    70]    Golden answer: 12078, Your answer: 12078      $Time: 10105
[PASS] [Pattern    71]    Golden answer: 12261, Your answer: 12261      $Time: 10235
[PASS] [Pattern    72]    Golden answer: 12444, Your answer: 12444      $Time: 10365
[PASS] [Pattern    73]    Golden answer: 12627, Your answer: 12627      $Time: 10495
[PASS] [Pattern    74]    Golden answer: 12810, Your answer: 12810      $Time: 10625
[PASS] [Pattern    75]    Golden answer: 12993, Your answer: 12993      $Time: 10755
[PASS] [Pattern    76]    Golden answer: 13196, Your answer: 13196      $Time: 10885
[PASS] [Pattern    77]    Golden answer: 13417, Your answer: 13417      $Time: 11015
[PASS] [Pattern    78]    Golden answer: 13592, Your answer: 13592      $Time: 11145
[PASS] [Pattern    79]    Golden answer: 13655, Your answer: 13655      $Time: 11275
[PASS] [Pattern    80]    Golden answer: 13592, Your answer: 13592      $Time: 11405
[PASS] [Pattern    81]    Golden answer: 13417, Your answer: 13417      $Time: 11535
[PASS] [Pattern    82]    Golden answer: 13196, Your answer: 13196      $Time: 11665
[PASS] [Pattern    83]    Golden answer: 12993, Your answer: 12993      $Time: 11795
[PASS] [Pattern    84]    Golden answer: 12810, Your answer: 12810      $Time: 11925
[PASS] [Pattern    85]    Golden answer: 12627, Your answer: 12627      $Time: 12055
[PASS] [Pattern    86]    Golden answer: 12444, Your answer: 12444      $Time: 12185
[PASS] [Pattern    87]    Golden answer: 12261, Your answer: 12261      $Time: 12315
[PASS] [Pattern    88]    Golden answer: 12078, Your answer: 12078      $Time: 12445
[PASS] [Pattern    89]    Golden answer: 11895, Your answer: 11895      $Time: 12575
[PASS] [Pattern    90]    Golden answer: 11712, Your answer: 11712      $Time: 12705
[PASS] [Pattern    91]    Golden answer: 11529, Your answer: 11529      $Time: 12835
[PASS] [Pattern    92]    Golden answer: 11346, Your answer: 11346      $Time: 12965
[PASS] [Pattern    93]    Golden answer: 11163, Your answer: 11163      $Time: 13095
[PASS] [Pattern    94]    Golden answer: 10980, Your answer: 10980      $Time: 13225
[PASS] [Pattern    95]    Golden answer: 10797, Your answer: 10797      $Time: 13355
[PASS] [Pattern    96]    Golden answer: 10614, Your answer: 10614      $Time: 13485
[PASS] [Pattern    97]    Golden answer: 10431, Your answer: 10431      $Time: 13615
[PASS] [Pattern    98]    Golden answer: 10248, Your answer: 10248      $Time: 13745
[PASS] [Pattern    99]    Golden answer: 10065, Your answer: 10065      $Time: 13875
[PASS] [Pattern   100]    Golden answer:  9882, Your answer:  9882      $Time: 14005
[PASS] [Pattern   101]    Golden answer:  9699, Your answer:  9699      $Time: 14135
[PASS] [Pattern   102]    Golden answer:  9516, Your answer:  9516      $Time: 14265
[PASS] [Pattern   103]    Golden answer:  9333, Your answer:  9333      $Time: 14395
[PASS] [Pattern   104]    Golden answer:  9150, Your answer:  9150      $Time: 14525
[PASS] [Pattern   105]    Golden answer:  8967, Your answer:  8967      $Time: 14655
[PASS] [Pattern   106]    Golden answer:  8784, Your answer:  8784      $Time: 14785
[PASS] [Pattern   107]    Golden answer:  8601, Your answer:  8601      $Time: 14915
[PASS] [Pattern   108]    Golden answer:  8418, Your answer:  8418      $Time: 15045
[PASS] [Pattern   109]    Golden answer:  8235, Your answer:  8235      $Time: 15175
[PASS] [Pattern   110]    Golden answer:  8052, Your answer:  8052      $Time: 15305
[PASS] [Pattern   111]    Golden answer:  7869, Your answer:  7869      $Time: 15435
[PASS] [Pattern   112]    Golden answer:  7686, Your answer:  7686      $Time: 15565
[PASS] [Pattern   113]    Golden answer:  7503, Your answer:  7503      $Time: 15695
[PASS] [Pattern   114]    Golden answer:  7320, Your answer:  7320      $Time: 15825
[PASS] [Pattern   115]    Golden answer:  7137, Your answer:  7137      $Time: 15955
[PASS] [Pattern   116]    Golden answer:  6954, Your answer:  6954      $Time: 16085
[PASS] [Pattern   117]    Golden answer:  6771, Your answer:  6771      $Time: 16215
[PASS] [Pattern   118]    Golden answer:  6588, Your answer:  6588      $Time: 16345
[PASS] [Pattern   119]    Golden answer:  6405, Your answer:  6405      $Time: 16475
[PASS] [Pattern   120]    Golden answer:  6222, Your answer:  6222      $Time: 16605
[PASS] [Pattern   121]    Golden answer:  6039, Your answer:  6039      $Time: 16735
[PASS] [Pattern   122]    Golden answer:  5856, Your answer:  5856      $Time: 16865
[PASS] [Pattern   123]    Golden answer:  5673, Your answer:  5673      $Time: 16995
[PASS] [Pattern   124]    Golden answer:  5490, Your answer:  5490      $Time: 17125
[PASS] [Pattern   125]    Golden answer:  5307, Your answer:  5307      $Time: 17255
[PASS] [Pattern   126]    Golden answer:  5124, Your answer:  5124      $Time: 17385
[PASS] [Pattern   127]    Golden answer:  4941, Your answer:  4941      $Time: 17515
[PASS] [Pattern   128]    Golden answer:  4758, Your answer:  4758      $Time: 17645
[PASS] [Pattern   129]    Golden answer:  4575, Your answer:  4575      $Time: 17775
[PASS] [Pattern   130]    Golden answer:  4392, Your answer:  4392      $Time: 17905
[PASS] [Pattern   131]    Golden answer:  4209, Your answer:  4209      $Time: 18035
[PASS] [Pattern   132]    Golden answer:  4026, Your answer:  4026      $Time: 18165
[PASS] [Pattern   133]    Golden answer:  3843, Your answer:  3843      $Time: 18295
[PASS] [Pattern   134]    Golden answer:  3660, Your answer:  3660      $Time: 18425
[PASS] [Pattern   135]    Golden answer:  3477, Your answer:  3477      $Time: 18555
[PASS] [Pattern   136]    Golden answer:  3294, Your answer:  3294      $Time: 18685
[PASS] [Pattern   137]    Golden answer:  3111, Your answer:  3111      $Time: 18815
[PASS] [Pattern   138]    Golden answer:  2928, Your answer:  2928      $Time: 18945
[PASS] [Pattern   139]    Golden answer:  2745, Your answer:  2745      $Time: 19075
[PASS] [Pattern   140]    Golden answer:  2562, Your answer:  2562      $Time: 19205
[PASS] [Pattern   141]    Golden answer:  2379, Your answer:  2379      $Time: 19335
[PASS] [Pattern   142]    Golden answer:  2196, Your answer:  2196      $Time: 19465
[PASS] [Pattern   143]    Golden answer:  2013, Your answer:  2013      $Time: 19595
[PASS] [Pattern   144]    Golden answer:  1830, Your answer:  1830      $Time: 19725
[PASS] [Pattern   145]    Golden answer:  1647, Your answer:  1647      $Time: 19855
[PASS] [Pattern   146]    Golden answer:  1464, Your answer:  1464      $Time: 19985
[PASS] [Pattern   147]    Golden answer:  1281, Your answer:  1281      $Time: 20115
[PASS] [Pattern   148]    Golden answer:  1098, Your answer:  1098      $Time: 20245
[PASS] [Pattern   149]    Golden answer:   915, Your answer:   915      $Time: 20375
[PASS] [Pattern   150]    Golden answer:   732, Your answer:   732      $Time: 20505
[PASS] [Pattern   151]    Golden answer:   549, Your answer:   549      $Time: 20635
[PASS] [Pattern   152]    Golden answer:   366, Your answer:   366      $Time: 20765
[PASS] [Pattern   153]    Golden answer:   183, Your answer:   183      $Time: 20895
[PASS] [Pattern   154]    Golden answer:     0, Your answer:     0      $Time: 21025
[PASS] [Pattern   155]    Golden answer:  -183, Your answer:  -183      $Time: 21155
[PASS] [Pattern   156]    Golden answer:  -366, Your answer:  -366      $Time: 21285
[PASS] [Pattern   157]    Golden answer:  -549, Your answer:  -549      $Time: 21415
[PASS] [Pattern   158]    Golden answer:  -732, Your answer:  -732      $Time: 21545
[PASS] [Pattern   159]    Golden answer:  -915, Your answer:  -915      $Time: 21675
[PASS] [Pattern   160]    Golden answer: -1098, Your answer: -1098      $Time: 21805
[PASS] [Pattern   161]    Golden answer: -1281, Your answer: -1281      $Time: 21935
[PASS] [Pattern   162]    Golden answer: -1464, Your answer: -1464      $Time: 22065
[PASS] [Pattern   163]    Golden answer: -1647, Your answer: -1647      $Time: 22195
[PASS] [Pattern   164]    Golden answer: -1830, Your answer: -1830      $Time: 22325
[PASS] [Pattern   165]    Golden answer: -2013, Your answer: -2013      $Time: 22455
[PASS] [Pattern   166]    Golden answer: -2196, Your answer: -2196      $Time: 22585
[PASS] [Pattern   167]    Golden answer: -2379, Your answer: -2379      $Time: 22715
[PASS] [Pattern   168]    Golden answer: -2562, Your answer: -2562      $Time: 22845
[PASS] [Pattern   169]    Golden answer: -2745, Your answer: -2745      $Time: 22975
[PASS] [Pattern   170]    Golden answer: -2928, Your answer: -2928      $Time: 23105
[PASS] [Pattern   171]    Golden answer: -3111, Your answer: -3111      $Time: 23235
[PASS] [Pattern   172]    Golden answer: -3294, Your answer: -3294      $Time: 23365
[PASS] [Pattern   173]    Golden answer: -3477, Your answer: -3477      $Time: 23495
[PASS] [Pattern   174]    Golden answer: -3660, Your answer: -3660      $Time: 23625
[PASS] [Pattern   175]    Golden answer: -3843, Your answer: -3843      $Time: 23755
[PASS] [Pattern   176]    Golden answer: -4026, Your answer: -4026      $Time: 23885
[PASS] [Pattern   177]    Golden answer: -4209, Your answer: -4209      $Time: 24015
[PASS] [Pattern   178]    Golden answer: -4392, Your answer: -4392      $Time: 24145
[PASS] [Pattern   179]    Golden answer: -4575, Your answer: -4575      $Time: 24275
[PASS] [Pattern   180]    Golden answer: -4758, Your answer: -4758      $Time: 24405
[PASS] [Pattern   181]    Golden answer: -4941, Your answer: -4941      $Time: 24535
[PASS] [Pattern   182]    Golden answer: -5124, Your answer: -5124      $Time: 24665
[PASS] [Pattern   183]    Golden answer: -5307, Your answer: -5307      $Time: 24795
[PASS] [Pattern   184]    Golden answer: -5490, Your answer: -5490      $Time: 24925
[PASS] [Pattern   185]    Golden answer: -5673, Your answer: -5673      $Time: 25055
[PASS] [Pattern   186]    Golden answer: -5856, Your answer: -5856      $Time: 25185
[PASS] [Pattern   187]    Golden answer: -6039, Your answer: -6039      $Time: 25315
[PASS] [Pattern   188]    Golden answer: -6222, Your answer: -6222      $Time: 25445
[PASS] [Pattern   189]    Golden answer: -6405, Your answer: -6405      $Time: 25575
[PASS] [Pattern   190]    Golden answer: -6588, Your answer: -6588      $Time: 25705
[PASS] [Pattern   191]    Golden answer: -6771, Your answer: -6771      $Time: 25835
[PASS] [Pattern   192]    Golden answer: -6954, Your answer: -6954      $Time: 25965
[PASS] [Pattern   193]    Golden answer: -7137, Your answer: -7137      $Time: 26095
[PASS] [Pattern   194]    Golden answer: -7320, Your answer: -7320      $Time: 26225
[PASS] [Pattern   195]    Golden answer: -7503, Your answer: -7503      $Time: 26355
[PASS] [Pattern   196]    Golden answer: -7686, Your answer: -7686      $Time: 26485
[PASS] [Pattern   197]    Golden answer: -7869, Your answer: -7869      $Time: 26615
[PASS] [Pattern   198]    Golden answer: -8052, Your answer: -8052      $Time: 26745
[PASS] [Pattern   199]    Golden answer: -8235, Your answer: -8235      $Time: 26875
[PASS] [Pattern   200]    Golden answer: -8418, Your answer: -8418      $Time: 27005
[PASS] [Pattern   201]    Golden answer: -8601, Your answer: -8601      $Time: 27135
[PASS] [Pattern   202]    Golden answer: -8784, Your answer: -8784      $Time: 27265
[PASS] [Pattern   203]    Golden answer: -8967, Your answer: -8967      $Time: 27395
[PASS] [Pattern   204]    Golden answer: -9150, Your answer: -9150      $Time: 27525
[PASS] [Pattern   205]    Golden answer: -9333, Your answer: -9333      $Time: 27655
[PASS] [Pattern   206]    Golden answer: -9516, Your answer: -9516      $Time: 27785
[PASS] [Pattern   207]    Golden answer: -9699, Your answer: -9699      $Time: 27915
[PASS] [Pattern   208]    Golden answer: -9882, Your answer: -9882      $Time: 28045
[PASS] [Pattern   209]    Golden answer: -10065, Your answer: -10065      $Time: 28175
[PASS] [Pattern   210]    Golden answer: -10248, Your answer: -10248      $Time: 28305
[PASS] [Pattern   211]    Golden answer: -10431, Your answer: -10431      $Time: 28435
[PASS] [Pattern   212]    Golden answer: -10614, Your answer: -10614      $Time: 28565
[PASS] [Pattern   213]    Golden answer: -10797, Your answer: -10797      $Time: 28695
[PASS] [Pattern   214]    Golden answer: -10980, Your answer: -10980      $Time: 28825
[PASS] [Pattern   215]    Golden answer: -11163, Your answer: -11163      $Time: 28955
[PASS] [Pattern   216]    Golden answer: -11346, Your answer: -11346      $Time: 29085
[PASS] [Pattern   217]    Golden answer: -11529, Your answer: -11529      $Time: 29215
[PASS] [Pattern   218]    Golden answer: -11712, Your answer: -11712      $Time: 29345
[PASS] [Pattern   219]    Golden answer: -11895, Your answer: -11895      $Time: 29475
[PASS] [Pattern   220]    Golden answer: -12078, Your answer: -12078      $Time: 29605
[PASS] [Pattern   221]    Golden answer: -12261, Your answer: -12261      $Time: 29735
[PASS] [Pattern   222]    Golden answer: -12444, Your answer: -12444      $Time: 29865
[PASS] [Pattern   223]    Golden answer: -12627, Your answer: -12627      $Time: 29995
[PASS] [Pattern   224]    Golden answer: -12810, Your answer: -12810      $Time: 30125
[PASS] [Pattern   225]    Golden answer: -12993, Your answer: -12993      $Time: 30255
[PASS] [Pattern   226]    Golden answer: -13196, Your answer: -13196      $Time: 30385
[PASS] [Pattern   227]    Golden answer: -13417, Your answer: -13417      $Time: 30515
[PASS] [Pattern   228]    Golden answer: -13592, Your answer: -13592      $Time: 30645
[PASS] [Pattern   229]    Golden answer: -13655, Your answer: -13655      $Time: 30775
[PASS] [Pattern   230]    Golden answer: -13592, Your answer: -13592      $Time: 30905
[PASS] [Pattern   231]    Golden answer: -13417, Your answer: -13417      $Time: 31035
[PASS] [Pattern   232]    Golden answer: -13196, Your answer: -13196      $Time: 31165
[PASS] [Pattern   233]    Golden answer: -12993, Your answer: -12993      $Time: 31295
[PASS] [Pattern   234]    Golden answer: -12810, Your answer: -12810      $Time: 31425
[PASS] [Pattern   235]    Golden answer: -12627, Your answer: -12627      $Time: 31555
[PASS] [Pattern   236]    Golden answer: -12444, Your answer: -12444      $Time: 31685
[PASS] [Pattern   237]    Golden answer: -12261, Your answer: -12261      $Time: 31815
[PASS] [Pattern   238]    Golden answer: -12078, Your answer: -12078      $Time: 31945
[PASS] [Pattern   239]    Golden answer: -11895, Your answer: -11895      $Time: 32075
[PASS] [Pattern   240]    Golden answer: -11712, Your answer: -11712      $Time: 32205
[PASS] [Pattern   241]    Golden answer: -11529, Your answer: -11529      $Time: 32335
[PASS] [Pattern   242]    Golden answer: -11346, Your answer: -11346      $Time: 32465
[PASS] [Pattern   243]    Golden answer: -11163, Your answer: -11163      $Time: 32595
[PASS] [Pattern   244]    Golden answer: -10980, Your answer: -10980      $Time: 32725
[PASS] [Pattern   245]    Golden answer: -10797, Your answer: -10797      $Time: 32855
[PASS] [Pattern   246]    Golden answer: -10614, Your answer: -10614      $Time: 32985
[PASS] [Pattern   247]    Golden answer: -10431, Your answer: -10431      $Time: 33115
[PASS] [Pattern   248]    Golden answer: -10248, Your answer: -10248      $Time: 33245
[PASS] [Pattern   249]    Golden answer: -10065, Your answer: -10065      $Time: 33375
[PASS] [Pattern   250]    Golden answer: -9882, Your answer: -9882      $Time: 33505
[PASS] [Pattern   251]    Golden answer: -9699, Your answer: -9699      $Time: 33635
[PASS] [Pattern   252]    Golden answer: -9516, Your answer: -9516      $Time: 33765
[PASS] [Pattern   253]    Golden answer: -9333, Your answer: -9333      $Time: 33895
[PASS] [Pattern   254]    Golden answer: -9150, Your answer: -9150      $Time: 34025
[PASS] [Pattern   255]    Golden answer: -8967, Your answer: -8967      $Time: 34155
[PASS] [Pattern   256]    Golden answer: -8784, Your answer: -8784      $Time: 34285
[PASS] [Pattern   257]    Golden answer: -8601, Your answer: -8601      $Time: 34415
[PASS] [Pattern   258]    Golden answer: -8418, Your answer: -8418      $Time: 34545
[PASS] [Pattern   259]    Golden answer: -8235, Your answer: -8235      $Time: 34675
[PASS] [Pattern   260]    Golden answer: -8052, Your answer: -8052      $Time: 34805
[PASS] [Pattern   261]    Golden answer: -7869, Your answer: -7869      $Time: 34935
[PASS] [Pattern   262]    Golden answer: -7686, Your answer: -7686      $Time: 35065
[PASS] [Pattern   263]    Golden answer: -7503, Your answer: -7503      $Time: 35195
[PASS] [Pattern   264]    Golden answer: -7320, Your answer: -7320      $Time: 35325
[PASS] [Pattern   265]    Golden answer: -7137, Your answer: -7137      $Time: 35455
[PASS] [Pattern   266]    Golden answer: -6954, Your answer: -6954      $Time: 35585
[PASS] [Pattern   267]    Golden answer: -6771, Your answer: -6771      $Time: 35715
[PASS] [Pattern   268]    Golden answer: -6588, Your answer: -6588      $Time: 35845
[PASS] [Pattern   269]    Golden answer: -6405, Your answer: -6405      $Time: 35975
[PASS] [Pattern   270]    Golden answer: -6222, Your answer: -6222      $Time: 36105
[PASS] [Pattern   271]    Golden answer: -6039, Your answer: -6039      $Time: 36235
[PASS] [Pattern   272]    Golden answer: -5856, Your answer: -5856      $Time: 36365
[PASS] [Pattern   273]    Golden answer: -5673, Your answer: -5673      $Time: 36495
[PASS] [Pattern   274]    Golden answer: -5490, Your answer: -5490      $Time: 36625
[PASS] [Pattern   275]    Golden answer: -5307, Your answer: -5307      $Time: 36755
[PASS] [Pattern   276]    Golden answer: -5124, Your answer: -5124      $Time: 36885
[PASS] [Pattern   277]    Golden answer: -4941, Your answer: -4941      $Time: 37015
[PASS] [Pattern   278]    Golden answer: -4758, Your answer: -4758      $Time: 37145
[PASS] [Pattern   279]    Golden answer: -4575, Your answer: -4575      $Time: 37275
[PASS] [Pattern   280]    Golden answer: -4392, Your answer: -4392      $Time: 37405
[PASS] [Pattern   281]    Golden answer: -4209, Your answer: -4209      $Time: 37535
[PASS] [Pattern   282]    Golden answer: -4026, Your answer: -4026      $Time: 37665
[PASS] [Pattern   283]    Golden answer: -3843, Your answer: -3843      $Time: 37795
[PASS] [Pattern   284]    Golden answer: -3660, Your answer: -3660      $Time: 37925
[PASS] [Pattern   285]    Golden answer: -3477, Your answer: -3477      $Time: 38055
[PASS] [Pattern   286]    Golden answer: -3294, Your answer: -3294      $Time: 38185
[PASS] [Pattern   287]    Golden answer: -3111, Your answer: -3111      $Time: 38315
[PASS] [Pattern   288]    Golden answer: -2928, Your answer: -2928      $Time: 38445
[PASS] [Pattern   289]    Golden answer: -2745, Your answer: -2745      $Time: 38575
[PASS] [Pattern   290]    Golden answer: -2562, Your answer: -2562      $Time: 38705
[PASS] [Pattern   291]    Golden answer: -2379, Your answer: -2379      $Time: 38835
[PASS] [Pattern   292]    Golden answer: -2196, Your answer: -2196      $Time: 38965
[PASS] [Pattern   293]    Golden answer: -2013, Your answer: -2013      $Time: 39095
[PASS] [Pattern   294]    Golden answer: -1830, Your answer: -1830      $Time: 39225
[PASS] [Pattern   295]    Golden answer: -1647, Your answer: -1647      $Time: 39355
[PASS] [Pattern   296]    Golden answer: -1464, Your answer: -1464      $Time: 39485
[PASS] [Pattern   297]    Golden answer: -1281, Your answer: -1281      $Time: 39615
[PASS] [Pattern   298]    Golden answer: -1098, Your answer: -1098      $Time: 39745
[PASS] [Pattern   299]    Golden answer:  -915, Your answer:  -915      $Time: 39875
[PASS] [Pattern   300]    Golden answer:  -732, Your answer:  -732      $Time: 40005
[PASS] [Pattern   301]    Golden answer:  -549, Your answer:  -549      $Time: 40135
[PASS] [Pattern   302]    Golden answer:  -366, Your answer:  -366      $Time: 40265
[PASS] [Pattern   303]    Golden answer:  -183, Your answer:  -183      $Time: 40395
[PASS] [Pattern   304]    Golden answer:     0, Your answer:     0      $Time: 40525
[PASS] [Pattern   305]    Golden answer:   183, Your answer:   183      $Time: 40655
[PASS] [Pattern   306]    Golden answer:   366, Your answer:   366      $Time: 40785
[PASS] [Pattern   307]    Golden answer:   549, Your answer:   549      $Time: 40915
[PASS] [Pattern   308]    Golden answer:   732, Your answer:   732      $Time: 41045
[PASS] [Pattern   309]    Golden answer:   915, Your answer:   915      $Time: 41175
[PASS] [Pattern   310]    Golden answer:  1098, Your answer:  1098      $Time: 41305
[PASS] [Pattern   311]    Golden answer:  1281, Your answer:  1281      $Time: 41435
[PASS] [Pattern   312]    Golden answer:  1464, Your answer:  1464      $Time: 41565
[PASS] [Pattern   313]    Golden answer:  1647, Your answer:  1647      $Time: 41695
[PASS] [Pattern   314]    Golden answer:  1830, Your answer:  1830      $Time: 41825
[PASS] [Pattern   315]    Golden answer:  2013, Your answer:  2013      $Time: 41955
[PASS] [Pattern   316]    Golden answer:  2196, Your answer:  2196      $Time: 42085
[PASS] [Pattern   317]    Golden answer:  2379, Your answer:  2379      $Time: 42215
[PASS] [Pattern   318]    Golden answer:  2562, Your answer:  2562      $Time: 42345
[PASS] [Pattern   319]    Golden answer:  2745, Your answer:  2745      $Time: 42475
[PASS] [Pattern   320]    Golden answer:  2928, Your answer:  2928      $Time: 42605
[PASS] [Pattern   321]    Golden answer:  3111, Your answer:  3111      $Time: 42735
[PASS] [Pattern   322]    Golden answer:  3294, Your answer:  3294      $Time: 42865
[PASS] [Pattern   323]    Golden answer:  3477, Your answer:  3477      $Time: 42995
[PASS] [Pattern   324]    Golden answer:  3660, Your answer:  3660      $Time: 43125
[PASS] [Pattern   325]    Golden answer:  3843, Your answer:  3843      $Time: 43255
[PASS] [Pattern   326]    Golden answer:  4026, Your answer:  4026      $Time: 43385
[PASS] [Pattern   327]    Golden answer:  4209, Your answer:  4209      $Time: 43515
[PASS] [Pattern   328]    Golden answer:  4392, Your answer:  4392      $Time: 43645
[PASS] [Pattern   329]    Golden answer:  4575, Your answer:  4575      $Time: 43775
[PASS] [Pattern   330]    Golden answer:  4758, Your answer:  4758      $Time: 43905
[PASS] [Pattern   331]    Golden answer:  4941, Your answer:  4941      $Time: 44035
[PASS] [Pattern   332]    Golden answer:  5124, Your answer:  5124      $Time: 44165
[PASS] [Pattern   333]    Golden answer:  5307, Your answer:  5307      $Time: 44295
[PASS] [Pattern   334]    Golden answer:  5490, Your answer:  5490      $Time: 44425
[PASS] [Pattern   335]    Golden answer:  5673, Your answer:  5673      $Time: 44555
[PASS] [Pattern   336]    Golden answer:  5856, Your answer:  5856      $Time: 44685
[PASS] [Pattern   337]    Golden answer:  6039, Your answer:  6039      $Time: 44815
[PASS] [Pattern   338]    Golden answer:  6222, Your answer:  6222      $Time: 44945
[PASS] [Pattern   339]    Golden answer:  6405, Your answer:  6405      $Time: 45075
[PASS] [Pattern   340]    Golden answer:  6588, Your answer:  6588      $Time: 45205
[PASS] [Pattern   341]    Golden answer:  6771, Your answer:  6771      $Time: 45335
[PASS] [Pattern   342]    Golden answer:  6954, Your answer:  6954      $Time: 45465
[PASS] [Pattern   343]    Golden answer:  7137, Your answer:  7137      $Time: 45595
[PASS] [Pattern   344]    Golden answer:  7320, Your answer:  7320      $Time: 45725
